FIP606 - Importação de Dados
…
 [1]  4  4  7  7  8  9 10 10 10 11 11 12 12 12 12 13 13 13 13 14 14 14 14 15 15
[26] 15 16 16 17 17 17 18 18 18 18 19 19 19 20 20 20 20 20 22 23 24 24 24 24 25

speed <- cars2$speed
speed

 [1]  4  4  7  7  8  9 10 10 10 11 11 12 12 12 12 13 13 13 13 14 14 14 14 15 15
[26] 15 16 16 17 17 17 18 18 18 18 19 19 19 20 20 20 20 20 22 23 24 24 24 24 25

DATAFRAME de um pacotes:

library(r4pde)
RustSoybean

# A tibble: 34 × 7
   epidemia latitude longitude local              planting   detection  severity
      <dbl>    <dbl>     <dbl> <chr>              <date>     <date>        <dbl>
 1       23    -23.0     -50.1 Cambara            2003-11-25 2004-02-02     24  
 2       24    -24.0     -52.4 Campo Mourao       2003-11-28 2004-02-02     21  
 3       31    -15.5     -55.2 Campo Verde        2004-11-20 2005-01-25     78  
 4        3    -13.3     -44.6 Correntina         2002-11-10 2003-01-03     85  
 5       15    -13.3     -44.6 Correntina         2003-11-28 2004-01-31     25  
 6       34    -25.4     -51.5 Guarapuava         2004-11-29 2005-03-14     32  
 7        7    -29.2     -53.7 Julio Castilhos    2002-12-15 2003-04-10     40  
 8       13    -12.1     -45.8 Luis Eduardo Maga… 2003-11-12 2004-02-15     39.2
 9       33    -12.1     -45.8 Luis Eduardo Maga… 2004-11-19 2005-01-25     55  
10        1    -23.3     -51.2 Londrina           2002-11-06 2003-02-03     45  
# ℹ 24 more rows
…
# using read.table
magnesio4 <-
read.table("dados-diversos.txt", header = TRUE)

Google sheet:

library(gsheet)
magnesio5 <- gsheet2tbl("https://docs.google.com/spreadsheets/d/1aID5Dh6PlBVCKzU1j7k-WA6zuWQWE2NhtWEgdJtt5iA/edit?usp=sharing")
survey <- gsheet2tbl("https://docs.google.com/spreadsheets/d/1aID5Dh6PlBVCKzU1j7k-WA6zuWQWE2NhtWEgdJtt5iA/edit#gid=366054269")

fusarium <- read_csv("https://raw.githubusercontent.com/emdelponte/epidemiology-R/main/data/fusarium_banana.csv")
fusarium

# A tibble: 163 × 4
     lon   lat marker  field
   <dbl> <dbl> <chr>   <dbl>
 1 -50.8 -20.5 plantas    11
 2 -50.8 -20.5 plantas    11
 3 -50.8 -20.5 plantas    11
 4 -50.8 -20.5 plantas    11
 5 -50.8 -20.5 plantas    11
 6 -50.8 -20.5 plantas    11
 7 -50.8 -20.5 plantas    11
 8 -50.8 -20.5 plantas    11
 9 -50.8 -20.5 plantas    11
10 -50.8 -20.5 plantas    11
# ℹ 153 more rows
